<svg width="12" height="8" viewBox="0 0 12 8" fill="none" xmlns="http://www.w3.org/2000/svg">
<path d="M1.5 1.75L6 6.25L10.5 1.75" stroke="#7F7DA6" stroke-width="2" stroke-linecap="round" stroke-linejoin="round"/>
</svg>
